{"data":[{"id":"y8qxjd","url":"https:\/\/wallhaven.cc\/w\/y8qxjd","short_url":"https:\/\/whvn.cc\/y8qxjd","views":4,"favorites":4,"source":"","purity":"sfw","category":"people","dimension_x":1920,"dimension_y":1280,"resolution":"1920x1280","ratio":"1.5","file_size":923560,"file_type":"image\/jpeg","created_at":"2021-04-15 17:36:28","colors":["#663300","#996633","#000000","#424153","#e7d8b1"],"path":"https:\/\/w.wallhaven.cc\/full\/y8\/wallhaven-y8qxjd.jpg","thumbs":{"large":"https:\/\/th.wallhaven.cc\/lg\/y8\/y8qxjd.jpg","original":"https:\/\/th.wallhaven.cc\/orig\/y8\/y8qxjd.jpg","small":"https:\/\/th.wallhaven.cc\/small\/y8\/y8qxjd.jpg"}},{"id":"wq5e8r","url":"https:\/\/wallhaven.cc\/w\/wq5e8r","short_url":"https:\/\/whvn.cc\/wq5e8r","views":11,"favorites":1,"source":"","purity":"sfw","category":"general","dimension_x":3000,"dimension_y":1688,"resolution":"3000x1688","ratio":"1.78","file_size":1285845,"file_type":"image\/jpeg","created_at":"2021-04-15 16:27:37","colors":["#424153","#000000","#999999","#996633","#e7d8b1"],"path":"https:\/\/w.wallhaven.cc\/full\/wq\/wallhaven-wq5e8r.jpg","thumbs":{"large":"https:\/\/th.wallhaven.cc\/lg\/wq\/wq5e8r.jpg","original":"https:\/\/th.wallhaven.cc\/orig\/wq\/wq5e8r.jpg","small":"https:\/\/th.wallhaven.cc\/small\/wq\/wq5e8r.jpg"}},{"id":"8og5xk","url":"https:\/\/wallhaven.cc\/w\/8og5xk","short_url":"https:\/\/whvn.cc\/8og5xk","views":214,"favorites":9,"source":"","purity":"sketchy","category":"people","dimension_x":2000,"dimension_y":1125,"resolution":"2000x1125","ratio":"1.78","file_size":744085,"file_type":"image\/jpeg","created_at":"2021-04-15 15:58:12","colors":["#cccccc","#424153","#999999","#000000","#996633"],"path":"https:\/\/w.wallhaven.cc\/full\/8o\/wallhaven-8og5xk.jpg","thumbs":{"large":"https:\/\/th.wallhaven.cc\/lg\/8o\/8og5xk.jpg","original":"https:\/\/th.wallhaven.cc\/orig\/8o\/8og5xk.jpg","small":"https:\/\/th.wallhaven.cc\/small\/8o\/8og5xk.jpg"}},{"id":"6oldqq","url":"https:\/\/wallhaven.cc\/w\/6oldqq","short_url":"https:\/\/whvn.cc\/6oldqq","views":202,"favorites":14,"source":"","purity":"nsfw","category":"people","dimension_x":2000,"dimension_y":1333,"resolution":"2000x1333","ratio":"1.5","file_size":704445,"file_type":"image\/jpeg","created_at":"2021-04-15 15:42:15","colors":["#996633","#663300","#cccccc","#999999","#424153"],"path":"https:\/\/w.wallhaven.cc\/full\/6o\/wallhaven-6oldqq.jpg","thumbs":{"large":"https:\/\/th.wallhaven.cc\/lg\/6o\/6oldqq.jpg","original":"https:\/\/th.wallhaven.cc\/orig\/6o\/6oldqq.jpg","small":"https:\/\/th.wallhaven.cc\/small\/6o\/6oldqq.jpg"}},{"id":"281ygx","url":"https:\/\/wallhaven.cc\/w\/281ygx","short_url":"https:\/\/whvn.cc\/281ygx","views":92,"favorites":9,"source":"","purity":"nsfw","category":"people","dimension_x":2560,"dimension_y":1706,"resolution":"2560x1706","ratio":"1.5","file_size":1922926,"file_type":"image\/jpeg","created_at":"2021-04-15 15:26:59","colors":["#424153","#000000","#996633","#663300","#999999"],"path":"https:\/\/w.wallhaven.cc\/full\/28\/wallhaven-281ygx.jpg","thumbs":{"large":"https:\/\/th.wallhaven.cc\/lg\/28\/281ygx.jpg","original":"https:\/\/th.wallhaven.cc\/orig\/28\/281ygx.jpg","small":"https:\/\/th.wallhaven.cc\/small\/28\/281ygx.jpg"}},{"id":"wq5eor","url":"https:\/\/wallhaven.cc\/w\/wq5eor","short_url":"https:\/\/whvn.cc\/wq5eor","views":241,"favorites":13,"source":"","purity":"sketchy","category":"people","dimension_x":3840,"dimension_y":2160,"resolution":"3840x2160","ratio":"1.78","file_size":4022958,"file_type":"image\/jpeg","created_at":"2021-04-15 14:34:34","colors":["#cccccc","#999999","#66cccc","#ffffff","#fdadc7"],"path":"https:\/\/w.wallhaven.cc\/full\/wq\/wallhaven-wq5eor.jpg","thumbs":{"large":"https:\/\/th.wallhaven.cc\/lg\/wq\/wq5eor.jpg","original":"https:\/\/th.wallhaven.cc\/orig\/wq\/wq5eor.jpg","small":"https:\/\/th.wallhaven.cc\/small\/wq\/wq5eor.jpg"}},{"id":"k78x3d","url":"https:\/\/wallhaven.cc\/w\/k78x3d","short_url":"https:\/\/whvn.cc\/k78x3d","views":261,"favorites":15,"source":"","purity":"nsfw","category":"people","dimension_x":2000,"dimension_y":1125,"resolution":"2000x1125","ratio":"1.78","file_size":613772,"file_type":"image\/jpeg","created_at":"2021-04-15 13:37:28","colors":["#000000","#424153","#663300","#996633","#999999"],"path":"https:\/\/w.wallhaven.cc\/full\/k7\/wallhaven-k78x3d.jpg","thumbs":{"large":"https:\/\/th.wallhaven.cc\/lg\/k7\/k78x3d.jpg","original":"https:\/\/th.wallhaven.cc\/orig\/k7\/k78x3d.jpg","small":"https:\/\/th.wallhaven.cc\/small\/k7\/k78x3d.jpg"}},{"id":"z8p8lo","url":"https:\/\/wallhaven.cc\/w\/z8p8lo","short_url":"https:\/\/whvn.cc\/z8p8lo","views":346,"favorites":31,"source":"","purity":"nsfw","category":"people","dimension_x":2000,"dimension_y":1333,"resolution":"2000x1333","ratio":"1.5","file_size":429724,"file_type":"image\/jpeg","created_at":"2021-04-15 12:26:19","colors":["#ffffff","#996633","#cccccc","#999999","#cc6633"],"path":"https:\/\/w.wallhaven.cc\/full\/z8\/wallhaven-z8p8lo.jpg","thumbs":{"large":"https:\/\/th.wallhaven.cc\/lg\/z8\/z8p8lo.jpg","original":"https:\/\/th.wallhaven.cc\/orig\/z8\/z8p8lo.jpg","small":"https:\/\/th.wallhaven.cc\/small\/z8\/z8p8lo.jpg"}},{"id":"8ogolk","url":"https:\/\/wallhaven.cc\/w\/8ogolk","short_url":"https:\/\/whvn.cc\/8ogolk","views":249,"favorites":11,"source":"","purity":"nsfw","category":"people","dimension_x":1920,"dimension_y":1280,"resolution":"1920x1280","ratio":"1.5","file_size":399025,"file_type":"image\/jpeg","created_at":"2021-04-15 12:22:46","colors":["#000000","#424153","#cccccc","#999999","#ffffff"],"path":"https:\/\/w.wallhaven.cc\/full\/8o\/wallhaven-8ogolk.jpg","thumbs":{"large":"https:\/\/th.wallhaven.cc\/lg\/8o\/8ogolk.jpg","original":"https:\/\/th.wallhaven.cc\/orig\/8o\/8ogolk.jpg","small":"https:\/\/th.wallhaven.cc\/small\/8o\/8ogolk.jpg"}},{"id":"x8e8vz","url":"https:\/\/wallhaven.cc\/w\/x8e8vz","short_url":"https:\/\/whvn.cc\/x8e8vz","views":256,"favorites":7,"source":"","purity":"sketchy","category":"people","dimension_x":1920,"dimension_y":1280,"resolution":"1920x1280","ratio":"1.5","file_size":408633,"file_type":"image\/jpeg","created_at":"2021-04-15 12:20:33","colors":["#000000","#ffffff","#cccccc","#424153","#999999"],"path":"https:\/\/w.wallhaven.cc\/full\/x8\/wallhaven-x8e8vz.jpg","thumbs":{"large":"https:\/\/th.wallhaven.cc\/lg\/x8\/x8e8vz.jpg","original":"https:\/\/th.wallhaven.cc\/orig\/x8\/x8e8vz.jpg","small":"https:\/\/th.wallhaven.cc\/small\/x8\/x8e8vz.jpg"}},{"id":"rdqdmj","url":"https:\/\/wallhaven.cc\/w\/rdqdmj","short_url":"https:\/\/whvn.cc\/rdqdmj","views":585,"favorites":49,"source":"","purity":"nsfw","category":"people","dimension_x":2500,"dimension_y":1667,"resolution":"2500x1667","ratio":"1.5","file_size":622895,"file_type":"image\/jpeg","created_at":"2021-04-15 11:45:04","colors":["#fdadc7","#cc6633","#ea4c88","#e7d8b1","#ffffff"],"path":"https:\/\/w.wallhaven.cc\/full\/rd\/wallhaven-rdqdmj.jpg","thumbs":{"large":"https:\/\/th.wallhaven.cc\/lg\/rd\/rdqdmj.jpg","original":"https:\/\/th.wallhaven.cc\/orig\/rd\/rdqdmj.jpg","small":"https:\/\/th.wallhaven.cc\/small\/rd\/rdqdmj.jpg"}},{"id":"k787y1","url":"https:\/\/wallhaven.cc\/w\/k787y1","short_url":"https:\/\/whvn.cc\/k787y1","views":419,"favorites":46,"source":"","purity":"nsfw","category":"people","dimension_x":2500,"dimension_y":1667,"resolution":"2500x1667","ratio":"1.5","file_size":581187,"file_type":"image\/jpeg","created_at":"2021-04-15 11:45:04","colors":["#fdadc7","#cc6633","#e7d8b1","#999999","#ffffff"],"path":"https:\/\/w.wallhaven.cc\/full\/k7\/wallhaven-k787y1.jpg","thumbs":{"large":"https:\/\/th.wallhaven.cc\/lg\/k7\/k787y1.jpg","original":"https:\/\/th.wallhaven.cc\/orig\/k7\/k787y1.jpg","small":"https:\/\/th.wallhaven.cc\/small\/k7\/k787y1.jpg"}},{"id":"q2r27r","url":"https:\/\/wallhaven.cc\/w\/q2r27r","short_url":"https:\/\/whvn.cc\/q2r27r","views":360,"favorites":31,"source":"","purity":"nsfw","category":"people","dimension_x":2500,"dimension_y":1667,"resolution":"2500x1667","ratio":"1.5","file_size":532580,"file_type":"image\/jpeg","created_at":"2021-04-15 11:45:04","colors":["#fdadc7","#999999","#e7d8b1","#cc6633","#ea4c88"],"path":"https:\/\/w.wallhaven.cc\/full\/q2\/wallhaven-q2r27r.jpg","thumbs":{"large":"https:\/\/th.wallhaven.cc\/lg\/q2\/q2r27r.jpg","original":"https:\/\/th.wallhaven.cc\/orig\/q2\/q2r27r.jpg","small":"https:\/\/th.wallhaven.cc\/small\/q2\/q2r27r.jpg"}},{"id":"y8q8dl","url":"https:\/\/wallhaven.cc\/w\/y8q8dl","short_url":"https:\/\/whvn.cc\/y8q8dl","views":237,"favorites":13,"source":"","purity":"nsfw","category":"general","dimension_x":3000,"dimension_y":2672,"resolution":"3000x2672","ratio":"1.12","file_size":10237143,"file_type":"image\/png","created_at":"2021-04-15 11:34:08","colors":["#000000","#424153","#999999","#cccccc","#996633"],"path":"https:\/\/w.wallhaven.cc\/full\/y8\/wallhaven-y8q8dl.png","thumbs":{"large":"https:\/\/th.wallhaven.cc\/lg\/y8\/y8q8dl.jpg","original":"https:\/\/th.wallhaven.cc\/orig\/y8\/y8q8dl.jpg","small":"https:\/\/th.wallhaven.cc\/small\/y8\/y8q8dl.jpg"}},{"id":"wq5q9x","url":"https:\/\/wallhaven.cc\/w\/wq5q9x","short_url":"https:\/\/whvn.cc\/wq5q9x","views":340,"favorites":34,"source":"","purity":"nsfw","category":"people","dimension_x":2667,"dimension_y":1667,"resolution":"2667x1667","ratio":"1.6","file_size":600478,"file_type":"image\/jpeg","created_at":"2021-04-15 11:16:39","colors":["#cccccc","#999999","#333399","#424153","#e7d8b1"],"path":"https:\/\/w.wallhaven.cc\/full\/wq\/wallhaven-wq5q9x.jpg","thumbs":{"large":"https:\/\/th.wallhaven.cc\/lg\/wq\/wq5q9x.jpg","original":"https:\/\/th.wallhaven.cc\/orig\/wq\/wq5q9x.jpg","small":"https:\/\/th.wallhaven.cc\/small\/wq\/wq5q9x.jpg"}},{"id":"2818m6","url":"https:\/\/wallhaven.cc\/w\/2818m6","short_url":"https:\/\/whvn.cc\/2818m6","views":581,"favorites":67,"source":"","purity":"nsfw","category":"people","dimension_x":4095,"dimension_y":2560,"resolution":"4095x2560","ratio":"1.6","file_size":668856,"file_type":"image\/jpeg","created_at":"2021-04-15 11:16:39","colors":["#cccccc","#ffffff","#999999","#996633","#e7d8b1"],"path":"https:\/\/w.wallhaven.cc\/full\/28\/wallhaven-2818m6.jpg","thumbs":{"large":"https:\/\/th.wallhaven.cc\/lg\/28\/2818m6.jpg","original":"https:\/\/th.wallhaven.cc\/orig\/28\/2818m6.jpg","small":"https:\/\/th.wallhaven.cc\/small\/28\/2818m6.jpg"}},{"id":"v9p9k3","url":"https:\/\/wallhaven.cc\/w\/v9p9k3","short_url":"https:\/\/whvn.cc\/v9p9k3","views":303,"favorites":34,"source":"","purity":"nsfw","category":"people","dimension_x":2880,"dimension_y":1800,"resolution":"2880x1800","ratio":"1.6","file_size":1041011,"file_type":"image\/jpeg","created_at":"2021-04-15 11:16:39","colors":["#424153","#999999","#996633","#000000","#e7d8b1"],"path":"https:\/\/w.wallhaven.cc\/full\/v9\/wallhaven-v9p9k3.jpg","thumbs":{"large":"https:\/\/th.wallhaven.cc\/lg\/v9\/v9p9k3.jpg","original":"https:\/\/th.wallhaven.cc\/orig\/v9\/v9p9k3.jpg","small":"https:\/\/th.wallhaven.cc\/small\/v9\/v9p9k3.jpg"}},{"id":"dp8pro","url":"https:\/\/wallhaven.cc\/w\/dp8pro","short_url":"https:\/\/whvn.cc\/dp8pro","views":358,"favorites":49,"source":"","purity":"nsfw","category":"people","dimension_x":2897,"dimension_y":1810,"resolution":"2897x1810","ratio":"1.6","file_size":449526,"file_type":"image\/jpeg","created_at":"2021-04-15 11:16:39","colors":["#ffffff","#cccccc","#999999","#e7d8b1","#996633"],"path":"https:\/\/w.wallhaven.cc\/full\/dp\/wallhaven-dp8pro.jpg","thumbs":{"large":"https:\/\/th.wallhaven.cc\/lg\/dp\/dp8pro.jpg","original":"https:\/\/th.wallhaven.cc\/orig\/dp\/dp8pro.jpg","small":"https:\/\/th.wallhaven.cc\/small\/dp\/dp8pro.jpg"}},{"id":"l3y3xp","url":"https:\/\/wallhaven.cc\/w\/l3y3xp","short_url":"https:\/\/whvn.cc\/l3y3xp","views":326,"favorites":20,"source":"","purity":"nsfw","category":"people","dimension_x":2560,"dimension_y":1707,"resolution":"2560x1707","ratio":"1.5","file_size":896965,"file_type":"image\/jpeg","created_at":"2021-04-15 09:38:03","colors":["#000000","#999999","#663300","#424153","#ffffff"],"path":"https:\/\/w.wallhaven.cc\/full\/l3\/wallhaven-l3y3xp.jpg","thumbs":{"large":"https:\/\/th.wallhaven.cc\/lg\/l3\/l3y3xp.jpg","original":"https:\/\/th.wallhaven.cc\/orig\/l3\/l3y3xp.jpg","small":"https:\/\/th.wallhaven.cc\/small\/l3\/l3y3xp.jpg"}},{"id":"y8q86l","url":"https:\/\/wallhaven.cc\/w\/y8q86l","short_url":"https:\/\/whvn.cc\/y8q86l","views":249,"favorites":18,"source":"","purity":"nsfw","category":"people","dimension_x":2560,"dimension_y":1707,"resolution":"2560x1707","ratio":"1.5","file_size":849631,"file_type":"image\/jpeg","created_at":"2021-04-15 09:38:03","colors":["#000000","#424153","#999999","#663300","#cccccc"],"path":"https:\/\/w.wallhaven.cc\/full\/y8\/wallhaven-y8q86l.jpg","thumbs":{"large":"https:\/\/th.wallhaven.cc\/lg\/y8\/y8q86l.jpg","original":"https:\/\/th.wallhaven.cc\/orig\/y8\/y8q86l.jpg","small":"https:\/\/th.wallhaven.cc\/small\/y8\/y8q86l.jpg"}},{"id":"q2r2kr","url":"https:\/\/wallhaven.cc\/w\/q2r2kr","short_url":"https:\/\/whvn.cc\/q2r2kr","views":396,"favorites":32,"source":"","purity":"sketchy","category":"people","dimension_x":2560,"dimension_y":1707,"resolution":"2560x1707","ratio":"1.5","file_size":332503,"file_type":"image\/jpeg","created_at":"2021-04-15 09:18:24","colors":["#999999","#424153","#000000","#cccccc","#663300"],"path":"https:\/\/w.wallhaven.cc\/full\/q2\/wallhaven-q2r2kr.jpg","thumbs":{"large":"https:\/\/th.wallhaven.cc\/lg\/q2\/q2r2kr.jpg","original":"https:\/\/th.wallhaven.cc\/orig\/q2\/q2r2kr.jpg","small":"https:\/\/th.wallhaven.cc\/small\/q2\/q2r2kr.jpg"}},{"id":"dp8pjo","url":"https:\/\/wallhaven.cc\/w\/dp8pjo","short_url":"https:\/\/whvn.cc\/dp8pjo","views":338,"favorites":29,"source":"","purity":"sketchy","category":"people","dimension_x":2560,"dimension_y":1707,"resolution":"2560x1707","ratio":"1.5","file_size":681904,"file_type":"image\/jpeg","created_at":"2021-04-15 09:18:24","colors":["#000000","#663300","#660000","#424153","#996633"],"path":"https:\/\/w.wallhaven.cc\/full\/dp\/wallhaven-dp8pjo.jpg","thumbs":{"large":"https:\/\/th.wallhaven.cc\/lg\/dp\/dp8pjo.jpg","original":"https:\/\/th.wallhaven.cc\/orig\/dp\/dp8pjo.jpg","small":"https:\/\/th.wallhaven.cc\/small\/dp\/dp8pjo.jpg"}},{"id":"rdqd9j","url":"https:\/\/wallhaven.cc\/w\/rdqd9j","short_url":"https:\/\/whvn.cc\/rdqd9j","views":287,"favorites":29,"source":"","purity":"sketchy","category":"people","dimension_x":2560,"dimension_y":1707,"resolution":"2560x1707","ratio":"1.5","file_size":744842,"file_type":"image\/jpeg","created_at":"2021-04-15 09:14:23","colors":["#cccccc","#999999","#996633","#000000","#424153"],"path":"https:\/\/w.wallhaven.cc\/full\/rd\/wallhaven-rdqd9j.jpg","thumbs":{"large":"https:\/\/th.wallhaven.cc\/lg\/rd\/rdqd9j.jpg","original":"https:\/\/th.wallhaven.cc\/orig\/rd\/rdqd9j.jpg","small":"https:\/\/th.wallhaven.cc\/small\/rd\/rdqd9j.jpg"}},{"id":"k787e1","url":"https:\/\/wallhaven.cc\/w\/k787e1","short_url":"https:\/\/whvn.cc\/k787e1","views":351,"favorites":36,"source":"","purity":"sketchy","category":"people","dimension_x":2560,"dimension_y":1707,"resolution":"2560x1707","ratio":"1.5","file_size":817870,"file_type":"image\/jpeg","created_at":"2021-04-15 09:14:23","colors":["#999999","#424153","#cccccc","#996633","#000000"],"path":"https:\/\/w.wallhaven.cc\/full\/k7\/wallhaven-k787e1.jpg","thumbs":{"large":"https:\/\/th.wallhaven.cc\/lg\/k7\/k787e1.jpg","original":"https:\/\/th.wallhaven.cc\/orig\/k7\/k787e1.jpg","small":"https:\/\/th.wallhaven.cc\/small\/k7\/k787e1.jpg"}}],"meta":{"current_page":1,"last_page":11188,"per_page":"24","total":268489,"query":"woman","seed":null}}